\relax 
\providecommand\hyper@newdestlabel[2]{}
\@writefile{toc}{\contentsline {section}{\tocsection {}{1}{Recollection: Quasi-coherent sheaves and cohomology}}{3}{section.1}\protected@file@percent }
\@writefile{toc}{\contentsline {subsection}{\tocsubsection {}{1.1}{$\mathcal  {O}_X$-modules and (quasi-)coherent sheaves}}{3}{thmt@dummyctr.dummy.1}\protected@file@percent }
\@writefile{loe}{\contentsline {defn}{\ifthmt@listswap Definition~1.1.1\else \numberline {1.1.1}Definition\fi }{3}{defn.1.1.1}\protected@file@percent }
\@writefile{loe}{\contentsline {defn}{\ifthmt@listswap Definition~1.1.2\else \numberline {1.1.2}Definition\fi }{3}{defn.1.1.2}\protected@file@percent }
\@writefile{loe}{\contentsline {rem}{\ifthmt@listswap Remark~1.1.3\else \numberline {1.1.3}Remark\fi }{3}{rem.1.1.3}\protected@file@percent }
\@writefile{loe}{\contentsline {prop}{\ifthmt@listswap Proposition~1.1.4\else \numberline {1.1.4}Proposition\fi }{3}{prop.1.1.4}\protected@file@percent }
\@writefile{loe}{\contentsline {defn}{\ifthmt@listswap Definition~1.1.5\else \numberline {1.1.5}Definition\fi }{3}{defn.1.1.5}\protected@file@percent }
\@writefile{loe}{\contentsline {defn}{\ifthmt@listswap Definition~1.1.6\else \numberline {1.1.6}Definition\fi }{3}{defn.1.1.6}\protected@file@percent }
\@writefile{loe}{\contentsline {rem}{\ifthmt@listswap Remark~1.1.7\else \numberline {1.1.7}Remark\fi }{3}{rem.1.1.7}\protected@file@percent }
\citation{huybrechts}
\@writefile{loe}{\contentsline {prop}{\ifthmt@listswap Proposition~1.1.8\else \numberline {1.1.8}Proposition\fi }{4}{prop.1.1.8}\protected@file@percent }
\@writefile{loe}{\contentsline {construction}{\ifthmt@listswap Construction~1.1.9\else \numberline {1.1.9}Construction\fi }{4}{construction.1.1.9}\protected@file@percent }
\@writefile{loe}{\contentsline {prop}{\ifthmt@listswap Proposition~1.1.10\else \numberline {1.1.10}Proposition\fi }{4}{prop.1.1.10}\protected@file@percent }
\newlabel{qcoh-under-pullback}{{{(i)}}{4}{}{Item.8}{}}
\newlabel{qcoh-under-pullback@cref}{{[enumi][1][]{(i)}}{[1][4][]4}}
\newlabel{qcoh-under-pushforward}{{{(ii)}}{4}{}{Item.9}{}}
\newlabel{qcoh-under-pushforward@cref}{{[enumi][2][]{(ii)}}{[1][4][]4}}
\@writefile{loe}{\contentsline {gproof}{\ifthmt@listswap \else \numberline {\let \autodot \@empty }\fi \thisproofname }{4}{thmt@dummyctr.dummy.11}\protected@file@percent }
\@writefile{loe}{\contentsline {rem}{\ifthmt@listswap Remark~1.1.11\else \numberline {1.1.11}Remark\fi }{4}{rem.1.1.11}\protected@file@percent }
\@writefile{toc}{\contentsline {subsection}{\tocsubsection {}{1.2}{Derived functors}}{4}{subsection.1.2}\protected@file@percent }
\@writefile{loe}{\contentsline {defn}{\ifthmt@listswap Definition~1.2.1\else \numberline {1.2.1}Definition\fi }{4}{defn.1.2.1}\protected@file@percent }
\@writefile{loe}{\contentsline {rem}{\ifthmt@listswap Remark~1.2.2\else \numberline {1.2.2}Remark\fi }{5}{rem.1.2.2}\protected@file@percent }
\@writefile{loe}{\contentsline {defn}{\ifthmt@listswap Definition~1.2.3\else \numberline {1.2.3}Definition\fi }{5}{defn.1.2.3}\protected@file@percent }
\@writefile{loe}{\contentsline {prop}{\ifthmt@listswap Proposition~1.2.4\else \numberline {1.2.4}Proposition\fi }{5}{prop.1.2.4}\protected@file@percent }
\@writefile{loe}{\contentsline {theorem}{\ifthmt@listswap Theorem~1.2.5\else \numberline {1.2.5}Theorem\fi }{5}{theorem.1.2.5}\protected@file@percent }
\newlabel{proper-pushforward}{{1.2.5}{5}{}{theorem.1.2.5}{}}
\newlabel{proper-pushforward@cref}{{[theorem][5][]1.2.5}{[1][5][]5}}
\@writefile{toc}{\contentsline {subsection}{\tocsubsection {}{1.3}{Serre duality}}{5}{thmt@dummyctr.dummy.18}\protected@file@percent }
\@writefile{loe}{\contentsline {theorem}{\ifthmt@listswap Theorem~1.3.1\else \numberline {1.3.1}Theorem\fi }{5}{theorem.1.3.1}\protected@file@percent }
\@setckpt{sections/6functor}{
\setcounter{page}{6}
\setcounter{equation}{0}
\setcounter{enumi}{2}
\setcounter{enumii}{0}
\setcounter{enumiii}{0}
\setcounter{enumiv}{0}
\setcounter{footnote}{0}
\setcounter{mpfootnote}{0}
\setcounter{parentequation}{0}
\setcounter{part}{0}
\setcounter{section}{1}
\setcounter{subsection}{3}
\setcounter{subsubsection}{0}
\setcounter{paragraph}{0}
\setcounter{subparagraph}{0}
\setcounter{figure}{0}
\setcounter{table}{0}
\setcounter{letenumeratei}{0}
\setcounter{Item}{13}
\setcounter{Hfootnote}{0}
\setcounter{bookmark@seq@number}{6}
\setcounter{bib}{0}
\setcounter{bib@env}{0}
\setcounter{su@anzahl}{0}
\setcounter{LT@tables}{0}
\setcounter{LT@chunks}{0}
\setcounter{section@level}{2}
\setcounter{thmt@dummyctr}{18}
\setcounter{everything}{1}
\setcounter{extra}{0}
\setcounter{inproof}{0}
\setcounter{innumtextproof}{0}
\setcounter{intext}{0}
\setcounter{cp@cntr}{0}
}
