\relax 
\providecommand\hyper@newdestlabel[2]{}
\@writefile{toc}{\contentsline {section}{\tocsection {}{2}{Basics of condensed sets}}{6}{section.2}\protected@file@percent }
\@writefile{toc}{\contentsline {subsection}{\tocsubsection {}{2.1}{Sites and sheaves}}{6}{thmt@dummyctr.dummy.19}\protected@file@percent }
\@writefile{loe}{\contentsline {defn}{\ifthmt@listswap Definition~2.1.1\else \numberline {2.1.1}Definition\fi }{6}{defn.2.1.1}\protected@file@percent }
\@writefile{loe}{\contentsline {example}{\ifthmt@listswap Example~2.1.2\else \numberline {2.1.2}Example\fi }{6}{example.2.1.2}\protected@file@percent }
\@writefile{loe}{\contentsline {defn}{\ifthmt@listswap Definition~2.1.3\else \numberline {2.1.3}Definition\fi }{6}{defn.2.1.3}\protected@file@percent }
\citation{stacks}
\@writefile{loe}{\contentsline {example}{\ifthmt@listswap Example~2.1.4\else \numberline {2.1.4}Example\fi }{7}{example.2.1.4}\protected@file@percent }
\@writefile{toc}{\contentsline {subsection}{\tocsubsection {}{2.2}{Cofiltered limits}}{7}{thmt@dummyctr.dummy.23}\protected@file@percent }
\@writefile{loe}{\contentsline {defn}{\ifthmt@listswap Definition~2.2.1\else \numberline {2.2.1}Definition\fi }{7}{defn.2.2.1}\protected@file@percent }
\@writefile{loe}{\contentsline {rem}{\ifthmt@listswap Remark~2.2.2\else \numberline {2.2.2}Remark\fi }{7}{rem.2.2.2}\protected@file@percent }
\@writefile{toc}{\contentsline {subsection}{\tocsubsection {}{2.3}{Profinite spaces}}{7}{thmt@dummyctr.dummy.25}\protected@file@percent }
\@writefile{loe}{\contentsline {defn}{\ifthmt@listswap Definition~2.3.1\else \numberline {2.3.1}Definition\fi }{7}{defn.2.3.1}\protected@file@percent }
\@writefile{loe}{\contentsline {prop}{\ifthmt@listswap Proposition~2.3.2\else \numberline {2.3.2}Proposition\fi }{7}{prop.2.3.2}\protected@file@percent }
\newlabel{equivalent-profinite:def}{{{(i)}}{7}{}{Item.22}{}}
\newlabel{equivalent-profinite:def@cref}{{[enumi][1][]{(i)}}{[1][7][]7}}
\newlabel{equivalent-profinite:good}{{{(ii)}}{7}{}{Item.23}{}}
\newlabel{equivalent-profinite:good@cref}{{[enumi][2][]{(ii)}}{[1][7][]7}}
\@writefile{loe}{\contentsline {gproof}{\ifthmt@listswap \else \numberline {\let \autodot \@empty }\fi \thisproofname }{7}{thmt@dummyctr.dummy.27}\protected@file@percent }
\@writefile{loe}{\contentsline {defn}{\ifthmt@listswap Definition~2.3.3\else \numberline {2.3.3}Definition\fi }{8}{defn.2.3.3}\protected@file@percent }
\newlabel{proetale-site-defn}{{{(i)}}{8}{}{Item.24}{}}
\newlabel{proetale-site-defn@cref}{{[enumi][1][]{(i)}}{[1][8][]8}}
\@gls@reference{symbols}{petal-of-point}{\glsnoidxdisplayloc{}{page}{glsnumberformat}{8}}
\@gls@reference{symbols}{cond-set}{\glsnoidxdisplayloc{}{page}{glsnumberformat}{8}}
\@writefile{loe}{\contentsline {rem}{\ifthmt@listswap Remark~2.3.4\else \numberline {2.3.4}Remark\fi }{8}{rem.2.3.4}\protected@file@percent }
\citation{proetale}
\citation{proetale}
\@writefile{loe}{\contentsline {construction}{\ifthmt@listswap Construction~2.3.5\else \numberline {2.3.5}Construction\fi }{9}{construction.2.3.5}\protected@file@percent }
\newlabel{top-to-condensed}{{2.3.5}{9}{}{construction.2.3.5}{}}
\newlabel{top-to-condensed@cref}{{[construction][5][]2.3.5}{[1][9][]9}}
\@gls@reference{symbols}{assoc-cond}{\glsnoidxdisplayloc{}{page}{glsnumberformat}{9}}
\@writefile{loe}{\contentsline {prop}{\ifthmt@listswap Proposition~2.3.6\else \numberline {2.3.6}Proposition\fi }{9}{prop.2.3.6}\protected@file@percent }
\@gls@reference{symbols}{sc-comp}{\glsnoidxdisplayloc{}{page}{glsnumberformat}{9}}
\@writefile{loe}{\contentsline {gproof}{\ifthmt@listswap \else \numberline {\let \autodot \@empty }\fi \thisproofname }{9}{thmt@dummyctr.dummy.32}\protected@file@percent }
\citation{stacks}
\@writefile{loe}{\contentsline {defprop}{\ifthmt@listswap Definition/Proposition~2.3.7\else \numberline {2.3.7}Definition/Proposition\fi }{10}{defprop.2.3.7}\protected@file@percent }
\@writefile{loe}{\contentsline {prop}{\ifthmt@listswap Proposition~2.3.8\else \numberline {2.3.8}Proposition\fi }{10}{prop.2.3.8}\protected@file@percent }
\newlabel{extdisc-resol}{{2.3.8}{10}{}{prop.2.3.8}{}}
\newlabel{extdisc-resol@cref}{{[prop][8][]2.3.8}{[1][10][]10}}
\@writefile{loe}{\contentsline {gproof}{\ifthmt@listswap \else \numberline {\let \autodot \@empty }\fi \thisproofname }{10}{thmt@dummyctr.dummy.35}\protected@file@percent }
\@writefile{loe}{\contentsline {rem}{\ifthmt@listswap Remark~2.3.9\else \numberline {2.3.9}Remark\fi }{10}{rem.2.3.9}\protected@file@percent }
\@writefile{toc}{\contentsline {subsection}{\tocsubsection {}{2.4}{Different models for $\cond  (\mathrm  {Set})$}}{10}{subsection.2.4}\protected@file@percent }
\@writefile{loe}{\contentsline {defn}{\ifthmt@listswap Definition~2.4.1\else \numberline {2.4.1}Definition\fi }{10}{defn.2.4.1}\protected@file@percent }
\citation{refcondensed}
\@writefile{loe}{\contentsline {numtext}{\ifthmt@listswap ~2.4.2\else \numberline {2.4.2}\fi }{11}{numtext.2.4.2}\protected@file@percent }
\@writefile{loe}{\contentsline {indefn}{\ifthmt@listswap Definition~\itshape 2.4.2.a\else \numberline {\itshape 2.4.2.a}Definition\fi }{11}{indefn.2.4.2.1}\protected@file@percent }
\@writefile{loe}{\contentsline {inlem}{\ifthmt@listswap Lemma~\itshape 2.4.2.b\else \numberline {\itshape 2.4.2.b}Lemma\fi }{11}{inlem.2.4.2.2}\protected@file@percent }
\@writefile{loe}{\contentsline {prop}{\ifthmt@listswap Proposition~2.4.3\else \numberline {2.4.3}Proposition\fi }{11}{prop.2.4.3}\protected@file@percent }
\@writefile{loe}{\contentsline {defn}{\ifthmt@listswap Definition~2.4.4\else \numberline {2.4.4}Definition\fi }{11}{defn.2.4.4}\protected@file@percent }
\citation{refcondensed}
\citation{scholze-injectives}
\citation{refcondensed}
\@writefile{loe}{\contentsline {prop}{\ifthmt@listswap Proposition~2.4.5\else \numberline {2.4.5}Proposition\fi \thmtformatoptarg {\cite {refcondensed}*{Prop. 1.7}}}{12}{prop.2.4.5}\protected@file@percent }
\newlabel{image-uline}{{2.4.5}{12}{\cite {refcondensed}*{Prop. 1.7}}{prop.2.4.5}{}}
\newlabel{image-uline@cref}{{[prop][5][]2.4.5}{[1][11][]12}}
\@writefile{toc}{\contentsline {subsection}{\tocsubsection {}{2.5}{Cohomology of compact Hausdorff spaces}}{12}{thmt@dummyctr.dummy.44}\protected@file@percent }
\@writefile{loe}{\contentsline {numtext}{\ifthmt@listswap ~2.5.1\else \numberline {2.5.1}\fi }{12}{numtext.2.5.1}\protected@file@percent }
\newlabel{cohomology-intro}{{2.5.1}{12}{}{numtext.2.5.1}{}}
\newlabel{cohomology-intro@cref}{{[numtext][1][]2.5.1}{[1][12][]12}}
\newlabel{cech-of-profinite}{{{(ii)}}{12}{}{Item.34}{}}
\newlabel{cech-of-profinite@cref}{{[enumi][2][]{(ii)}}{[1][12][]12}}
\@writefile{loe}{\contentsline {numtext}{\ifthmt@listswap ~2.5.2\else \numberline {2.5.2}\fi }{12}{numtext.2.5.2}\protected@file@percent }
\@writefile{loe}{\contentsline {inprop}{\ifthmt@listswap Proposition~\itshape 2.5.2.a\else \numberline {\itshape 2.5.2.a}Proposition\fi }{12}{inprop.2.5.2.1}\protected@file@percent }
\@writefile{loe}{\contentsline {inlem}{\ifthmt@listswap Lemma~\itshape 2.5.2.b\else \numberline {\itshape 2.5.2.b}Lemma\fi }{13}{inlem.2.5.2.2}\protected@file@percent }
\@writefile{loe}{\contentsline {theorem}{\ifthmt@listswap Theorem~2.5.3\else \numberline {2.5.3}Theorem\fi }{13}{theorem.2.5.3}\protected@file@percent }
\newlabel{cohomology-of-profinite}{{2.5.3}{13}{}{theorem.2.5.3}{}}
\newlabel{cohomology-of-profinite@cref}{{[theorem][3][]2.5.3}{[1][13][]13}}
\@writefile{loe}{\contentsline {inrem}{\ifthmt@listswap Remark~\itshape 2.5.3.a\else \numberline {\itshape 2.5.3.a}Remark\fi }{13}{inrem.2.5.3.1}\protected@file@percent }
\@writefile{loe}{\contentsline {gproof}{\ifthmt@listswap \else \numberline {\let \autodot \@empty }\fi \thisproofname }{13}{thmt@dummyctr.dummy.50}\protected@file@percent }
\newlabel{big-hypercover}{{{$\ast $}}{14}{}{AMS.4}{}}
\newlabel{big-hypercover@cref}{{[equation][2147483647][]{$\ast $}}{[1][14][]14}}
\newlabel{i-th-hypercover}{{{$\ast _i$}}{14}{}{AMS.5}{}}
\newlabel{i-th-hypercover@cref}{{[equation][2147483647][]{$\ast _i$}}{[1][14][]14}}
\@writefile{loe}{\contentsline {theorem}{\ifthmt@listswap Theorem~2.5.4\else \numberline {2.5.4}Theorem\fi }{14}{theorem.2.5.4}\protected@file@percent }
\newlabel{cond-coh-with-real-coeff}{{2.5.4}{14}{}{theorem.2.5.4}{}}
\newlabel{cond-coh-with-real-coeff@cref}{{[theorem][4][]2.5.4}{[1][14][]14}}
\@setckpt{sections/profinite}{
\setcounter{page}{15}
\setcounter{equation}{0}
\setcounter{enumi}{3}
\setcounter{enumii}{0}
\setcounter{enumiii}{0}
\setcounter{enumiv}{0}
\setcounter{footnote}{5}
\setcounter{mpfootnote}{0}
\setcounter{parentequation}{0}
\setcounter{part}{0}
\setcounter{section}{2}
\setcounter{subsection}{5}
\setcounter{subsubsection}{0}
\setcounter{paragraph}{0}
\setcounter{subparagraph}{0}
\setcounter{figure}{0}
\setcounter{table}{0}
\setcounter{letenumeratei}{0}
\setcounter{Item}{39}
\setcounter{Hfootnote}{5}
\setcounter{bookmark@seq@number}{12}
\setcounter{bib}{0}
\setcounter{bib@env}{0}
\setcounter{su@anzahl}{0}
\setcounter{LT@tables}{0}
\setcounter{LT@chunks}{0}
\setcounter{section@level}{2}
\setcounter{thmt@dummyctr}{51}
\setcounter{everything}{4}
\setcounter{extra}{0}
\setcounter{inproof}{0}
\setcounter{innumtextproof}{0}
\setcounter{intext}{0}
\setcounter{cp@cntr}{0}
}
